Design Route Status
                                               :      # nets :
   ------------------------------------------- : ----------- :
   # of logical nets.......................... :         459 :
       # of nets not needing routing.......... :         310 :
           # of internally routed nets........ :         310 :
       # of routable nets..................... :         149 :
           # of fully routed nets............. :         149 :
       # of nets with routing errors.......... :           0 :
   ------------------------------------------- : ----------- :

